211.251.253.4 - - [02/Mar/2020:19:26:00 +0900] "GET / HTTP/1.1" 200 709 "-" "Mozilla/5.0 (Windows NT 10.0; Win64; x64) AppleWebKit/537.36 (KHTML, like Gecko) Chrome/80.0.3987.122 Safari/537.36"
211.251.253.4 - - [02/Mar/2020:19:26:00 +0900] "GET /userinfo.php HTTP/1.1" 200 1200 "http://221.142.174.180/" "Mozilla/5.0 (Windows NT 10.0; Win64; x64) AppleWebKit/537.36 (KHTML, like Gecko) Chrome/80.0.3987.122 Safari/537.36"
211.251.253.4 - - [02/Mar/2020:19:26:00 +0900] "GET /leftmenu.php HTTP/1.1" 200 3327 "http://221.142.174.180/" "Mozilla/5.0 (Windows NT 10.0; Win64; x64) AppleWebKit/537.36 (KHTML, like Gecko) Chrome/80.0.3987.122 Safari/537.36"
211.251.253.4 - - [02/Mar/2020:19:26:00 +0900] "GET /content.php HTTP/1.1" 200 5 "http://221.142.174.180/" "Mozilla/5.0 (Windows NT 10.0; Win64; x64) AppleWebKit/537.36 (KHTML, like Gecko) Chrome/80.0.3987.122 Safari/537.36"
211.251.253.4 - - [02/Mar/2020:19:26:01 +0900] "GET /favicon.ico HTTP/1.1" 404 555 "http://221.142.174.180/" "Mozilla/5.0 (Windows NT 10.0; Win64; x64) AppleWebKit/537.36 (KHTML, like Gecko) Chrome/80.0.3987.122 Safari/537.36"
211.251.253.4 - - [02/Mar/2020:19:26:24 +0900] "GET /access.php HTTP/1.1" 200 3320688 "-" "Mozilla/5.0 (Windows NT 10.0; Win64; x64) AppleWebKit/537.36 (KHTML, like Gecko) Chrome/80.0.3987.122 Safari/537.36"
211.251.253.4 - - [02/Mar/2020:19:28:52 +0900] "GET / HTTP/1.1" 200 709 "-" "Mozilla/5.0 (Windows NT 10.0; Win64; x64) AppleWebKit/537.36 (KHTML, like Gecko) Chrome/80.0.3987.122 Safari/537.36"
211.251.253.4 - - [02/Mar/2020:19:28:52 +0900] "GET /userinfo.php HTTP/1.1" 200 1200 "http://221.142.174.180/" "Mozilla/5.0 (Windows NT 10.0; Win64; x64) AppleWebKit/537.36 (KHTML, like Gecko) Chrome/80.0.3987.122 Safari/537.36"
211.251.253.4 - - [02/Mar/2020:19:28:52 +0900] "GET /leftmenu.php HTTP/1.1" 200 3327 "http://221.142.174.180/" "Mozilla/5.0 (Windows NT 10.0; Win64; x64) AppleWebKit/537.36 (KHTML, like Gecko) Chrome/80.0.3987.122 Safari/537.36"
211.251.253.4 - - [02/Mar/2020:19:28:52 +0900] "GET /content.php HTTP/1.1" 200 5 "http://221.142.174.180/" "Mozilla/5.0 (Windows NT 10.0; Win64; x64) AppleWebKit/537.36 (KHTML, like Gecko) Chrome/80.0.3987.122 Safari/537.36"
211.251.253.4 - - [02/Mar/2020:19:28:57 +0900] "POST /login_process.php HTTP/1.1" 302 125 "http://221.142.174.180/userinfo.php" "Mozilla/5.0 (Windows NT 10.0; Win64; x64) AppleWebKit/537.36 (KHTML, like Gecko) Chrome/80.0.3987.122 Safari/537.36"
211.251.253.4 - - [02/Mar/2020:19:28:57 +0900] "GET /userinfo.php HTTP/1.1" 200 1001 "http://221.142.174.180/userinfo.php" "Mozilla/5.0 (Windows NT 10.0; Win64; x64) AppleWebKit/537.36 (KHTML, like Gecko) Chrome/80.0.3987.122 Safari/537.36"
211.251.253.4 - - [02/Mar/2020:19:29:05 +0900] "GET /ascii_coder/index.php HTTP/1.1" 200 715 "http://221.142.174.180/leftmenu.php" "Mozilla/5.0 (Windows NT 10.0; Win64; x64) AppleWebKit/537.36 (KHTML, like Gecko) Chrome/80.0.3987.122 Safari/537.36"
211.251.253.4 - - [02/Mar/2020:19:29:05 +0900] "GET /userinfo.php HTTP/1.1" 200 1001 "http://221.142.174.180/ascii_coder/index.php" "Mozilla/5.0 (Windows NT 10.0; Win64; x64) AppleWebKit/537.36 (KHTML, like Gecko) Chrome/80.0.3987.122 Safari/537.36"
211.251.253.4 - - [02/Mar/2020:19:29:05 +0900] "GET /ascii_coder/ascii_coder_main.php HTTP/1.1" 200 589 "http://221.142.174.180/ascii_coder/index.php" "Mozilla/5.0 (Windows NT 10.0; Win64; x64) AppleWebKit/537.36 (KHTML, like Gecko) Chrome/80.0.3987.122 Safari/537.36"
211.251.253.4 - - [02/Mar/2020:19:29:05 +0900] "GET /leftmenu.php HTTP/1.1" 200 3327 "http://221.142.174.180/ascii_coder/index.php" "Mozilla/5.0 (Windows NT 10.0; Win64; x64) AppleWebKit/537.36 (KHTML, like Gecko) Chrome/80.0.3987.122 Safari/537.36"
211.251.253.4 - - [02/Mar/2020:19:29:09 +0900] "POST /ascii_coder/ascii_coder_process.php HTTP/1.1" 200 4072 "http://221.142.174.180/ascii_coder/ascii_coder_main.php" "Mozilla/5.0 (Windows NT 10.0; Win64; x64) AppleWebKit/537.36 (KHTML, like Gecko) Chrome/80.0.3987.122 Safari/537.36"
127.0.0.1 - - [05/Mar/2020:08:10:33 +0900] "GET / HTTP/1.1" 200 709 "-" "Mozilla/5.0 (Windows NT 10.0; Win64; x64) AppleWebKit/537.36 (KHTML, like Gecko) Chrome/80.0.3987.122 Safari/537.36"
127.0.0.1 - - [05/Mar/2020:08:10:34 +0900] "GET /userinfo.php HTTP/1.1" 200 1200 "http://localhost/" "Mozilla/5.0 (Windows NT 10.0; Win64; x64) AppleWebKit/537.36 (KHTML, like Gecko) Chrome/80.0.3987.122 Safari/537.36"
127.0.0.1 - - [05/Mar/2020:08:10:34 +0900] "GET /leftmenu.php HTTP/1.1" 200 3602 "http://localhost/" "Mozilla/5.0 (Windows NT 10.0; Win64; x64) AppleWebKit/537.36 (KHTML, like Gecko) Chrome/80.0.3987.122 Safari/537.36"
127.0.0.1 - - [05/Mar/2020:08:10:34 +0900] "GET /content.php HTTP/1.1" 200 5 "http://localhost/" "Mozilla/5.0 (Windows NT 10.0; Win64; x64) AppleWebKit/537.36 (KHTML, like Gecko) Chrome/80.0.3987.122 Safari/537.36"
127.0.0.1 - - [05/Mar/2020:08:10:34 +0900] "GET /favicon.ico HTTP/1.1" 404 555 "http://localhost/" "Mozilla/5.0 (Windows NT 10.0; Win64; x64) AppleWebKit/537.36 (KHTML, like Gecko) Chrome/80.0.3987.122 Safari/537.36"
127.0.0.1 - - [05/Mar/2020:08:10:36 +0900] "POST /login_process.php HTTP/1.1" 302 109 "http://localhost/userinfo.php" "Mozilla/5.0 (Windows NT 10.0; Win64; x64) AppleWebKit/537.36 (KHTML, like Gecko) Chrome/80.0.3987.122 Safari/537.36"
127.0.0.1 - - [05/Mar/2020:08:10:36 +0900] "GET /userinfo.php HTTP/1.1" 200 996 "http://localhost/userinfo.php" "Mozilla/5.0 (Windows NT 10.0; Win64; x64) AppleWebKit/537.36 (KHTML, like Gecko) Chrome/80.0.3987.122 Safari/537.36"
127.0.0.1 - - [05/Mar/2020:08:10:41 +0900] "GET /ip_retreive/index.php HTTP/1.1" 200 714 "http://localhost/leftmenu.php" "Mozilla/5.0 (Windows NT 10.0; Win64; x64) AppleWebKit/537.36 (KHTML, like Gecko) Chrome/80.0.3987.122 Safari/537.36"
127.0.0.1 - - [05/Mar/2020:08:10:41 +0900] "GET /userinfo.php HTTP/1.1" 200 996 "http://localhost/ip_retreive/index.php" "Mozilla/5.0 (Windows NT 10.0; Win64; x64) AppleWebKit/537.36 (KHTML, like Gecko) Chrome/80.0.3987.122 Safari/537.36"
127.0.0.1 - - [05/Mar/2020:08:10:41 +0900] "GET /ip_retreive/ip_retreive_main.php HTTP/1.1" 200 249 "http://localhost/ip_retreive/index.php" "Mozilla/5.0 (Windows NT 10.0; Win64; x64) AppleWebKit/537.36 (KHTML, like Gecko) Chrome/80.0.3987.122 Safari/537.36"
127.0.0.1 - - [05/Mar/2020:08:10:41 +0900] "GET /leftmenu.php HTTP/1.1" 200 3602 "http://localhost/ip_retreive/index.php" "Mozilla/5.0 (Windows NT 10.0; Win64; x64) AppleWebKit/537.36 (KHTML, like Gecko) Chrome/80.0.3987.122 Safari/537.36"
127.0.0.1 - - [05/Mar/2020:08:11:06 +0900] "POST /ip_retreive/ip_retreive_process.php HTTP/1.1" 302 40 "http://localhost/ip_retreive/ip_retreive_main.php" "Mozilla/5.0 (Windows NT 10.0; Win64; x64) AppleWebKit/537.36 (KHTML, like Gecko) Chrome/80.0.3987.122 Safari/537.36"
127.0.0.1 - - [05/Mar/2020:08:11:06 +0900] "GET /ip_retreive/ip_retreive_result.php HTTP/1.1" 200 2404 "http://localhost/ip_retreive/ip_retreive_main.php" "Mozilla/5.0 (Windows NT 10.0; Win64; x64) AppleWebKit/537.36 (KHTML, like Gecko) Chrome/80.0.3987.122 Safari/537.36"
127.0.0.1 - - [05/Mar/2020:08:15:39 +0900] "GET /ip_retreive/ip_retreive_result.php HTTP/1.1" 200 2746 "http://localhost/ip_retreive/ip_retreive_result.php" "Mozilla/5.0 (Windows NT 10.0; Win64; x64) AppleWebKit/537.36 (KHTML, like Gecko) Chrome/80.0.3987.122 Safari/537.36"
127.0.0.1 - - [05/Mar/2020:08:16:27 +0900] "GET /http_header_enum/http_header_enum_result.php HTTP/1.1" 200 11729 "http://localhost/leftmenu.php" "Mozilla/5.0 (Windows NT 10.0; Win64; x64) AppleWebKit/537.36 (KHTML, like Gecko) Chrome/80.0.3987.122 Safari/537.36"
127.0.0.1 - - [05/Mar/2020:08:16:42 +0900] "GET /form_tag_enum/index.php HTTP/1.1" 200 717 "http://localhost/leftmenu.php" "Mozilla/5.0 (Windows NT 10.0; Win64; x64) AppleWebKit/537.36 (KHTML, like Gecko) Chrome/80.0.3987.122 Safari/537.36"
127.0.0.1 - - [05/Mar/2020:08:16:42 +0900] "GET /userinfo.php HTTP/1.1" 200 996 "http://localhost/form_tag_enum/index.php" "Mozilla/5.0 (Windows NT 10.0; Win64; x64) AppleWebKit/537.36 (KHTML, like Gecko) Chrome/80.0.3987.122 Safari/537.36"
127.0.0.1 - - [05/Mar/2020:08:16:42 +0900] "GET /form_tag_enum/form_tag_enum_main.php HTTP/1.1" 200 163 "http://localhost/form_tag_enum/index.php" "Mozilla/5.0 (Windows NT 10.0; Win64; x64) AppleWebKit/537.36 (KHTML, like Gecko) Chrome/80.0.3987.122 Safari/537.36"
127.0.0.1 - - [05/Mar/2020:08:16:42 +0900] "GET /leftmenu.php HTTP/1.1" 200 3602 "http://localhost/form_tag_enum/index.php" "Mozilla/5.0 (Windows NT 10.0; Win64; x64) AppleWebKit/537.36 (KHTML, like Gecko) Chrome/80.0.3987.122 Safari/537.36"
127.0.0.1 - - [05/Mar/2020:08:16:45 +0900] "POST /form_tag_enum/form_tag_enum_process.php HTTP/1.1" 302 12 "http://localhost/form_tag_enum/form_tag_enum_main.php" "Mozilla/5.0 (Windows NT 10.0; Win64; x64) AppleWebKit/537.36 (KHTML, like Gecko) Chrome/80.0.3987.122 Safari/537.36"
127.0.0.1 - - [05/Mar/2020:08:16:45 +0900] "GET /form_tag_enum/form_tag_enum_result.php HTTP/1.1" 200 96983 "http://localhost/form_tag_enum/form_tag_enum_main.php" "Mozilla/5.0 (Windows NT 10.0; Win64; x64) AppleWebKit/537.36 (KHTML, like Gecko) Chrome/80.0.3987.122 Safari/537.36"
127.0.0.1 - - [05/Mar/2020:09:40:51 +0900] "GET /text_replacer/index.php HTTP/1.1" 200 716 "http://localhost/leftmenu.php" "Mozilla/5.0 (Windows NT 10.0; Win64; x64) AppleWebKit/537.36 (KHTML, like Gecko) Chrome/80.0.3987.122 Safari/537.36"
127.0.0.1 - - [05/Mar/2020:09:40:51 +0900] "GET /userinfo.php HTTP/1.1" 200 996 "http://localhost/text_replacer/index.php" "Mozilla/5.0 (Windows NT 10.0; Win64; x64) AppleWebKit/537.36 (KHTML, like Gecko) Chrome/80.0.3987.122 Safari/537.36"
127.0.0.1 - - [05/Mar/2020:09:40:51 +0900] "GET /text_replacer/text_replacer_main.php HTTP/1.1" 200 356 "http://localhost/text_replacer/index.php" "Mozilla/5.0 (Windows NT 10.0; Win64; x64) AppleWebKit/537.36 (KHTML, like Gecko) Chrome/80.0.3987.122 Safari/537.36"
127.0.0.1 - - [05/Mar/2020:09:40:51 +0900] "GET /leftmenu.php HTTP/1.1" 200 3602 "http://localhost/text_replacer/index.php" "Mozilla/5.0 (Windows NT 10.0; Win64; x64) AppleWebKit/537.36 (KHTML, like Gecko) Chrome/80.0.3987.122 Safari/537.36"
127.0.0.1 - - [05/Mar/2020:09:40:59 +0900] "POST /text_replacer/text_replacer_process.php HTTP/1.1" 200 122 "http://localhost/text_replacer/text_replacer_main.php" "Mozilla/5.0 (Windows NT 10.0; Win64; x64) AppleWebKit/537.36 (KHTML, like Gecko) Chrome/80.0.3987.122 Safari/537.36"
127.0.0.1 - - [05/Mar/2020:09:52:10 +0900] "GET / HTTP/1.1" 200 709 "-" "Mozilla/5.0 (Windows NT 10.0; Win64; x64) AppleWebKit/537.36 (KHTML, like Gecko) Chrome/80.0.3987.122 Safari/537.36"
127.0.0.1 - - [05/Mar/2020:09:52:10 +0900] "GET /userinfo.php HTTP/1.1" 200 996 "http://localhost/" "Mozilla/5.0 (Windows NT 10.0; Win64; x64) AppleWebKit/537.36 (KHTML, like Gecko) Chrome/80.0.3987.122 Safari/537.36"
127.0.0.1 - - [05/Mar/2020:09:52:10 +0900] "GET /leftmenu.php HTTP/1.1" 200 3585 "http://localhost/" "Mozilla/5.0 (Windows NT 10.0; Win64; x64) AppleWebKit/537.36 (KHTML, like Gecko) Chrome/80.0.3987.122 Safari/537.36"
127.0.0.1 - - [05/Mar/2020:09:52:10 +0900] "GET /content.php HTTP/1.1" 200 5 "http://localhost/" "Mozilla/5.0 (Windows NT 10.0; Win64; x64) AppleWebKit/537.36 (KHTML, like Gecko) Chrome/80.0.3987.122 Safari/537.36"
127.0.0.1 - - [05/Mar/2020:09:53:38 +0900] "GET /ip_retreive/index.php HTTP/1.1" 200 714 "http://localhost/leftmenu.php" "Mozilla/5.0 (Windows NT 10.0; Win64; x64) AppleWebKit/537.36 (KHTML, like Gecko) Chrome/80.0.3987.122 Safari/537.36"
127.0.0.1 - - [05/Mar/2020:09:53:38 +0900] "GET /userinfo.php HTTP/1.1" 200 996 "http://localhost/ip_retreive/index.php" "Mozilla/5.0 (Windows NT 10.0; Win64; x64) AppleWebKit/537.36 (KHTML, like Gecko) Chrome/80.0.3987.122 Safari/537.36"
127.0.0.1 - - [05/Mar/2020:09:53:38 +0900] "GET /ip_retreive/ip_retreive_main.php HTTP/1.1" 200 249 "http://localhost/ip_retreive/index.php" "Mozilla/5.0 (Windows NT 10.0; Win64; x64) AppleWebKit/537.36 (KHTML, like Gecko) Chrome/80.0.3987.122 Safari/537.36"
127.0.0.1 - - [05/Mar/2020:09:53:38 +0900] "GET /leftmenu.php HTTP/1.1" 200 3585 "http://localhost/ip_retreive/index.php" "Mozilla/5.0 (Windows NT 10.0; Win64; x64) AppleWebKit/537.36 (KHTML, like Gecko) Chrome/80.0.3987.122 Safari/537.36"
127.0.0.1 - - [05/Mar/2020:09:53:42 +0900] "POST /ip_retreive/ip_retreive_process.php HTTP/1.1" 499 0 "http://localhost/ip_retreive/ip_retreive_main.php" "Mozilla/5.0 (Windows NT 10.0; Win64; x64) AppleWebKit/537.36 (KHTML, like Gecko) Chrome/80.0.3987.122 Safari/537.36"
127.0.0.1 - - [05/Mar/2020:09:53:43 +0900] "POST /ip_retreive/ip_retreive_process.php HTTP/1.1" 302 2563 "http://localhost/ip_retreive/ip_retreive_main.php" "Mozilla/5.0 (Windows NT 10.0; Win64; x64) AppleWebKit/537.36 (KHTML, like Gecko) Chrome/80.0.3987.122 Safari/537.36"
127.0.0.1 - - [05/Mar/2020:09:53:43 +0900] "GET /ip_retreive/ip_retreive_result.php HTTP/1.1" 200 3430 "http://localhost/ip_retreive/ip_retreive_main.php" "Mozilla/5.0 (Windows NT 10.0; Win64; x64) AppleWebKit/537.36 (KHTML, like Gecko) Chrome/80.0.3987.122 Safari/537.36"
127.0.0.1 - - [05/Mar/2020:09:55:01 +0900] "GET /ip_retreive/ip_retreive_result.php HTTP/1.1" 200 3468 "http://localhost/leftmenu.php" "Mozilla/5.0 (Windows NT 10.0; Win64; x64) AppleWebKit/537.36 (KHTML, like Gecko) Chrome/80.0.3987.122 Safari/537.36"
127.0.0.1 - - [05/Mar/2020:09:55:30 +0900] "GET /text_replacer/index.php HTTP/1.1" 200 716 "http://localhost/leftmenu.php" "Mozilla/5.0 (Windows NT 10.0; Win64; x64) AppleWebKit/537.36 (KHTML, like Gecko) Chrome/80.0.3987.122 Safari/537.36"
127.0.0.1 - - [05/Mar/2020:09:55:30 +0900] "GET /userinfo.php HTTP/1.1" 200 996 "http://localhost/text_replacer/index.php" "Mozilla/5.0 (Windows NT 10.0; Win64; x64) AppleWebKit/537.36 (KHTML, like Gecko) Chrome/80.0.3987.122 Safari/537.36"
127.0.0.1 - - [05/Mar/2020:09:55:30 +0900] "GET /text_replacer/text_replacer_main.php HTTP/1.1" 200 356 "http://localhost/text_replacer/index.php" "Mozilla/5.0 (Windows NT 10.0; Win64; x64) AppleWebKit/537.36 (KHTML, like Gecko) Chrome/80.0.3987.122 Safari/537.36"
127.0.0.1 - - [05/Mar/2020:09:55:30 +0900] "GET /leftmenu.php HTTP/1.1" 200 3585 "http://localhost/text_replacer/index.php" "Mozilla/5.0 (Windows NT 10.0; Win64; x64) AppleWebKit/537.36 (KHTML, like Gecko) Chrome/80.0.3987.122 Safari/537.36"
127.0.0.1 - - [05/Mar/2020:09:55:32 +0900] "GET /ip_retreive/ip_retreive_result.php HTTP/1.1" 200 3473 "http://localhost/leftmenu.php" "Mozilla/5.0 (Windows NT 10.0; Win64; x64) AppleWebKit/537.36 (KHTML, like Gecko) Chrome/80.0.3987.122 Safari/537.36"
127.0.0.1 - - [05/Mar/2020:10:20:52 +0900] "GET / HTTP/1.1" 200 709 "-" "Mozilla/5.0 (Windows NT 10.0; Win64; x64) AppleWebKit/537.36 (KHTML, like Gecko) Chrome/80.0.3987.122 Safari/537.36"
127.0.0.1 - - [05/Mar/2020:10:20:52 +0900] "GET /userinfo.php HTTP/1.1" 200 996 "http://localhost/" "Mozilla/5.0 (Windows NT 10.0; Win64; x64) AppleWebKit/537.36 (KHTML, like Gecko) Chrome/80.0.3987.122 Safari/537.36"
127.0.0.1 - - [05/Mar/2020:10:20:52 +0900] "GET /leftmenu.php HTTP/1.1" 200 3585 "http://localhost/" "Mozilla/5.0 (Windows NT 10.0; Win64; x64) AppleWebKit/537.36 (KHTML, like Gecko) Chrome/80.0.3987.122 Safari/537.36"
127.0.0.1 - - [05/Mar/2020:10:20:52 +0900] "GET /content.php HTTP/1.1" 200 5 "http://localhost/" "Mozilla/5.0 (Windows NT 10.0; Win64; x64) AppleWebKit/537.36 (KHTML, like Gecko) Chrome/80.0.3987.122 Safari/537.36"
127.0.0.1 - - [05/Mar/2020:10:20:54 +0900] "GET /link_analysis/index.php HTTP/1.1" 200 716 "http://localhost/leftmenu.php" "Mozilla/5.0 (Windows NT 10.0; Win64; x64) AppleWebKit/537.36 (KHTML, like Gecko) Chrome/80.0.3987.122 Safari/537.36"
127.0.0.1 - - [05/Mar/2020:10:20:54 +0900] "GET /userinfo.php HTTP/1.1" 200 996 "http://localhost/link_analysis/index.php" "Mozilla/5.0 (Windows NT 10.0; Win64; x64) AppleWebKit/537.36 (KHTML, like Gecko) Chrome/80.0.3987.122 Safari/537.36"
127.0.0.1 - - [05/Mar/2020:10:20:54 +0900] "GET /leftmenu.php HTTP/1.1" 200 3585 "http://localhost/link_analysis/index.php" "Mozilla/5.0 (Windows NT 10.0; Win64; x64) AppleWebKit/537.36 (KHTML, like Gecko) Chrome/80.0.3987.122 Safari/537.36"
127.0.0.1 - - [05/Mar/2020:10:20:54 +0900] "GET /link_analysis/link_analysis_main.php HTTP/1.1" 200 493 "http://localhost/link_analysis/index.php" "Mozilla/5.0 (Windows NT 10.0; Win64; x64) AppleWebKit/537.36 (KHTML, like Gecko) Chrome/80.0.3987.122 Safari/537.36"
127.0.0.1 - - [05/Mar/2020:10:20:59 +0900] "POST /link_analysis/link_analysis_process.php HTTP/1.1" 302 5 "http://localhost/link_analysis/link_analysis_main.php" "Mozilla/5.0 (Windows NT 10.0; Win64; x64) AppleWebKit/537.36 (KHTML, like Gecko) Chrome/80.0.3987.122 Safari/537.36"
127.0.0.1 - - [05/Mar/2020:10:20:59 +0900] "GET /link_analysis/link_analysis_result.php HTTP/1.1" 200 287 "http://localhost/link_analysis/link_analysis_main.php" "Mozilla/5.0 (Windows NT 10.0; Win64; x64) AppleWebKit/537.36 (KHTML, like Gecko) Chrome/80.0.3987.122 Safari/537.36"
127.0.0.1 - - [05/Mar/2020:10:21:02 +0900] "GET /link_analysis/link_analysis_result.php HTTP/1.1" 200 1930 "http://localhost/link_analysis/link_analysis_result.php" "Mozilla/5.0 (Windows NT 10.0; Win64; x64) AppleWebKit/537.36 (KHTML, like Gecko) Chrome/80.0.3987.122 Safari/537.36"
127.0.0.1 - - [05/Mar/2020:10:21:43 +0900] "GET /vuln_url_scanning/index.php HTTP/1.1" 200 720 "http://localhost/leftmenu.php" "Mozilla/5.0 (Windows NT 10.0; Win64; x64) AppleWebKit/537.36 (KHTML, like Gecko) Chrome/80.0.3987.122 Safari/537.36"
127.0.0.1 - - [05/Mar/2020:10:21:43 +0900] "GET /userinfo.php HTTP/1.1" 200 996 "http://localhost/vuln_url_scanning/index.php" "Mozilla/5.0 (Windows NT 10.0; Win64; x64) AppleWebKit/537.36 (KHTML, like Gecko) Chrome/80.0.3987.122 Safari/537.36"
127.0.0.1 - - [05/Mar/2020:10:21:43 +0900] "GET /vuln_url_scanning/vuln_url_scanning_main.php HTTP/1.1" 200 167 "http://localhost/vuln_url_scanning/index.php" "Mozilla/5.0 (Windows NT 10.0; Win64; x64) AppleWebKit/537.36 (KHTML, like Gecko) Chrome/80.0.3987.122 Safari/537.36"
127.0.0.1 - - [05/Mar/2020:10:21:43 +0900] "GET /leftmenu.php HTTP/1.1" 200 3585 "http://localhost/vuln_url_scanning/index.php" "Mozilla/5.0 (Windows NT 10.0; Win64; x64) AppleWebKit/537.36 (KHTML, like Gecko) Chrome/80.0.3987.122 Safari/537.36"
127.0.0.1 - - [05/Mar/2020:10:21:45 +0900] "POST /vuln_url_scanning/vuln_url_scanning_process.php HTTP/1.1" 302 12 "http://localhost/vuln_url_scanning/vuln_url_scanning_main.php" "Mozilla/5.0 (Windows NT 10.0; Win64; x64) AppleWebKit/537.36 (KHTML, like Gecko) Chrome/80.0.3987.122 Safari/537.36"
127.0.0.1 - - [05/Mar/2020:10:21:45 +0900] "GET /vuln_url_scanning/vuln_url_scanning_result.php HTTP/1.1" 200 498 "http://localhost/vuln_url_scanning/vuln_url_scanning_main.php" "Mozilla/5.0 (Windows NT 10.0; Win64; x64) AppleWebKit/537.36 (KHTML, like Gecko) Chrome/80.0.3987.122 Safari/537.36"
127.0.0.1 - - [05/Mar/2020:10:21:47 +0900] "GET /vuln_url_scanning/vuln_url_scanning_result.php HTTP/1.1" 200 158 "http://localhost/vuln_url_scanning/vuln_url_scanning_result.php" "Mozilla/5.0 (Windows NT 10.0; Win64; x64) AppleWebKit/537.36 (KHTML, like Gecko) Chrome/80.0.3987.122 Safari/537.36"
127.0.0.1 - - [05/Mar/2020:10:21:48 +0900] "GET /vuln_url_scanning/vuln_url_scanning_result.php HTTP/1.1" 200 158 "http://localhost/vuln_url_scanning/vuln_url_scanning_result.php" "Mozilla/5.0 (Windows NT 10.0; Win64; x64) AppleWebKit/537.36 (KHTML, like Gecko) Chrome/80.0.3987.122 Safari/537.36"
127.0.0.1 - - [05/Mar/2020:10:21:54 +0900] "GET /vuln_url_scanning/vuln_url_scanning_result.php HTTP/1.1" 200 200 "http://localhost/vuln_url_scanning/vuln_url_scanning_result.php" "Mozilla/5.0 (Windows NT 10.0; Win64; x64) AppleWebKit/537.36 (KHTML, like Gecko) Chrome/80.0.3987.122 Safari/537.36"
127.0.0.1 - - [05/Mar/2020:10:21:54 +0900] "GET /vuln_url_scanning/vuln_url_scanning_result.php HTTP/1.1" 200 258 "http://localhost/vuln_url_scanning/vuln_url_scanning_result.php" "Mozilla/5.0 (Windows NT 10.0; Win64; x64) AppleWebKit/537.36 (KHTML, like Gecko) Chrome/80.0.3987.122 Safari/537.36"
127.0.0.1 - - [05/Mar/2020:10:25:08 +0900] "GET /vuln_url_scanning/index.php HTTP/1.1" 200 720 "http://localhost/leftmenu.php" "Mozilla/5.0 (Windows NT 10.0; Win64; x64) AppleWebKit/537.36 (KHTML, like Gecko) Chrome/80.0.3987.122 Safari/537.36"
127.0.0.1 - - [05/Mar/2020:10:25:08 +0900] "GET /userinfo.php HTTP/1.1" 200 996 "http://localhost/vuln_url_scanning/index.php" "Mozilla/5.0 (Windows NT 10.0; Win64; x64) AppleWebKit/537.36 (KHTML, like Gecko) Chrome/80.0.3987.122 Safari/537.36"
127.0.0.1 - - [05/Mar/2020:10:25:08 +0900] "GET /leftmenu.php HTTP/1.1" 200 3583 "http://localhost/vuln_url_scanning/index.php" "Mozilla/5.0 (Windows NT 10.0; Win64; x64) AppleWebKit/537.36 (KHTML, like Gecko) Chrome/80.0.3987.122 Safari/537.36"
127.0.0.1 - - [05/Mar/2020:10:25:08 +0900] "GET /vuln_url_scanning/vuln_url_scanning_main.php HTTP/1.1" 200 167 "http://localhost/vuln_url_scanning/index.php" "Mozilla/5.0 (Windows NT 10.0; Win64; x64) AppleWebKit/537.36 (KHTML, like Gecko) Chrome/80.0.3987.122 Safari/537.36"
127.0.0.1 - - [05/Mar/2020:10:25:17 +0900] "GET /vuln_url_scanning/index.php HTTP/1.1" 200 720 "http://localhost/leftmenu.php" "Mozilla/5.0 (Windows NT 10.0; Win64; x64) AppleWebKit/537.36 (KHTML, like Gecko) Chrome/80.0.3987.122 Safari/537.36"
127.0.0.1 - - [05/Mar/2020:10:25:17 +0900] "GET /userinfo.php HTTP/1.1" 200 996 "http://localhost/vuln_url_scanning/index.php" "Mozilla/5.0 (Windows NT 10.0; Win64; x64) AppleWebKit/537.36 (KHTML, like Gecko) Chrome/80.0.3987.122 Safari/537.36"
127.0.0.1 - - [05/Mar/2020:10:25:17 +0900] "GET /vuln_url_scanning/vuln_url_scanning_main.php HTTP/1.1" 200 167 "http://localhost/vuln_url_scanning/index.php" "Mozilla/5.0 (Windows NT 10.0; Win64; x64) AppleWebKit/537.36 (KHTML, like Gecko) Chrome/80.0.3987.122 Safari/537.36"
127.0.0.1 - - [05/Mar/2020:10:25:17 +0900] "GET /leftmenu.php HTTP/1.1" 200 3586 "http://localhost/vuln_url_scanning/index.php" "Mozilla/5.0 (Windows NT 10.0; Win64; x64) AppleWebKit/537.36 (KHTML, like Gecko) Chrome/80.0.3987.122 Safari/537.36"
127.0.0.1 - - [05/Mar/2020:10:25:54 +0900] "GET /vuln_url_scanning/index.php HTTP/1.1" 200 720 "http://localhost/leftmenu.php" "Mozilla/5.0 (Windows NT 10.0; Win64; x64) AppleWebKit/537.36 (KHTML, like Gecko) Chrome/80.0.3987.122 Safari/537.36"
127.0.0.1 - - [05/Mar/2020:10:25:54 +0900] "GET /userinfo.php HTTP/1.1" 200 996 "http://localhost/vuln_url_scanning/index.php" "Mozilla/5.0 (Windows NT 10.0; Win64; x64) AppleWebKit/537.36 (KHTML, like Gecko) Chrome/80.0.3987.122 Safari/537.36"
127.0.0.1 - - [05/Mar/2020:10:25:54 +0900] "GET /vuln_url_scanning/vuln_url_scanning_main.php HTTP/1.1" 200 167 "http://localhost/vuln_url_scanning/index.php" "Mozilla/5.0 (Windows NT 10.0; Win64; x64) AppleWebKit/537.36 (KHTML, like Gecko) Chrome/80.0.3987.122 Safari/537.36"
127.0.0.1 - - [05/Mar/2020:10:25:54 +0900] "GET /leftmenu.php HTTP/1.1" 200 3586 "http://localhost/vuln_url_scanning/index.php" "Mozilla/5.0 (Windows NT 10.0; Win64; x64) AppleWebKit/537.36 (KHTML, like Gecko) Chrome/80.0.3987.122 Safari/537.36"
127.0.0.1 - - [05/Mar/2020:10:27:34 +0900] "GET /vuln_url_scanning/index.php HTTP/1.1" 200 720 "http://localhost/leftmenu.php" "Mozilla/5.0 (Windows NT 10.0; Win64; x64) AppleWebKit/537.36 (KHTML, like Gecko) Chrome/80.0.3987.122 Safari/537.36"
127.0.0.1 - - [05/Mar/2020:10:27:34 +0900] "GET /userinfo.php HTTP/1.1" 200 996 "http://localhost/vuln_url_scanning/index.php" "Mozilla/5.0 (Windows NT 10.0; Win64; x64) AppleWebKit/537.36 (KHTML, like Gecko) Chrome/80.0.3987.122 Safari/537.36"
127.0.0.1 - - [05/Mar/2020:10:27:34 +0900] "GET /vuln_url_scanning/vuln_url_scanning_main.php HTTP/1.1" 200 167 "http://localhost/vuln_url_scanning/index.php" "Mozilla/5.0 (Windows NT 10.0; Win64; x64) AppleWebKit/537.36 (KHTML, like Gecko) Chrome/80.0.3987.122 Safari/537.36"
127.0.0.1 - - [05/Mar/2020:10:27:34 +0900] "GET /leftmenu.php HTTP/1.1" 200 3586 "http://localhost/vuln_url_scanning/index.php" "Mozilla/5.0 (Windows NT 10.0; Win64; x64) AppleWebKit/537.36 (KHTML, like Gecko) Chrome/80.0.3987.122 Safari/537.36"
127.0.0.1 - - [05/Mar/2020:10:27:36 +0900] "GET /vuln_url_scanning/index.php HTTP/1.1" 200 720 "http://localhost/leftmenu.php" "Mozilla/5.0 (Windows NT 10.0; Win64; x64) AppleWebKit/537.36 (KHTML, like Gecko) Chrome/80.0.3987.122 Safari/537.36"
127.0.0.1 - - [05/Mar/2020:10:27:36 +0900] "GET /userinfo.php HTTP/1.1" 200 996 "http://localhost/vuln_url_scanning/index.php" "Mozilla/5.0 (Windows NT 10.0; Win64; x64) AppleWebKit/537.36 (KHTML, like Gecko) Chrome/80.0.3987.122 Safari/537.36"
127.0.0.1 - - [05/Mar/2020:10:27:36 +0900] "GET /leftmenu.php HTTP/1.1" 200 3586 "http://localhost/vuln_url_scanning/index.php" "Mozilla/5.0 (Windows NT 10.0; Win64; x64) AppleWebKit/537.36 (KHTML, like Gecko) Chrome/80.0.3987.122 Safari/537.36"
127.0.0.1 - - [05/Mar/2020:10:27:36 +0900] "GET /vuln_url_scanning/vuln_url_scanning_main.php HTTP/1.1" 200 167 "http://localhost/vuln_url_scanning/index.php" "Mozilla/5.0 (Windows NT 10.0; Win64; x64) AppleWebKit/537.36 (KHTML, like Gecko) Chrome/80.0.3987.122 Safari/537.36"
127.0.0.1 - - [05/Mar/2020:10:27:46 +0900] "GET /vuln_url_scanning/index.php HTTP/1.1" 200 720 "http://localhost/leftmenu.php" "Mozilla/5.0 (Windows NT 10.0; Win64; x64) AppleWebKit/537.36 (KHTML, like Gecko) Chrome/80.0.3987.122 Safari/537.36"
127.0.0.1 - - [05/Mar/2020:10:27:47 +0900] "GET /userinfo.php HTTP/1.1" 200 996 "http://localhost/vuln_url_scanning/index.php" "Mozilla/5.0 (Windows NT 10.0; Win64; x64) AppleWebKit/537.36 (KHTML, like Gecko) Chrome/80.0.3987.122 Safari/537.36"
127.0.0.1 - - [05/Mar/2020:10:27:47 +0900] "GET /vuln_url_scanning/vuln_url_scanning_main.php HTTP/1.1" 200 167 "http://localhost/vuln_url_scanning/index.php" "Mozilla/5.0 (Windows NT 10.0; Win64; x64) AppleWebKit/537.36 (KHTML, like Gecko) Chrome/80.0.3987.122 Safari/537.36"
127.0.0.1 - - [05/Mar/2020:10:27:47 +0900] "GET /leftmenu.php HTTP/1.1" 200 3592 "http://localhost/vuln_url_scanning/index.php" "Mozilla/5.0 (Windows NT 10.0; Win64; x64) AppleWebKit/537.36 (KHTML, like Gecko) Chrome/80.0.3987.122 Safari/537.36"
127.0.0.1 - - [05/Mar/2020:10:28:58 +0900] "GET /vuln_url_scanning/index.php HTTP/1.1" 200 720 "http://localhost/leftmenu.php" "Mozilla/5.0 (Windows NT 10.0; Win64; x64) AppleWebKit/537.36 (KHTML, like Gecko) Chrome/80.0.3987.122 Safari/537.36"
127.0.0.1 - - [05/Mar/2020:10:28:58 +0900] "GET /userinfo.php HTTP/1.1" 200 996 "http://localhost/vuln_url_scanning/index.php" "Mozilla/5.0 (Windows NT 10.0; Win64; x64) AppleWebKit/537.36 (KHTML, like Gecko) Chrome/80.0.3987.122 Safari/537.36"
127.0.0.1 - - [05/Mar/2020:10:28:58 +0900] "GET /vuln_url_scanning/vuln_url_scanning_main.php HTTP/1.1" 200 167 "http://localhost/vuln_url_scanning/index.php" "Mozilla/5.0 (Windows NT 10.0; Win64; x64) AppleWebKit/537.36 (KHTML, like Gecko) Chrome/80.0.3987.122 Safari/537.36"
127.0.0.1 - - [05/Mar/2020:10:28:58 +0900] "GET /leftmenu.php HTTP/1.1" 200 3608 "http://localhost/vuln_url_scanning/index.php" "Mozilla/5.0 (Windows NT 10.0; Win64; x64) AppleWebKit/537.36 (KHTML, like Gecko) Chrome/80.0.3987.122 Safari/537.36"
127.0.0.1 - - [05/Mar/2020:10:29:24 +0900] "GET /vuln_url_scanning/index.php HTTP/1.1" 200 720 "http://localhost/leftmenu.php" "Mozilla/5.0 (Windows NT 10.0; Win64; x64) AppleWebKit/537.36 (KHTML, like Gecko) Chrome/80.0.3987.122 Safari/537.36"
127.0.0.1 - - [05/Mar/2020:10:29:24 +0900] "GET /userinfo.php HTTP/1.1" 200 996 "http://localhost/vuln_url_scanning/index.php" "Mozilla/5.0 (Windows NT 10.0; Win64; x64) AppleWebKit/537.36 (KHTML, like Gecko) Chrome/80.0.3987.122 Safari/537.36"
127.0.0.1 - - [05/Mar/2020:10:29:24 +0900] "GET /vuln_url_scanning/vuln_url_scanning_main.php HTTP/1.1" 200 167 "http://localhost/vuln_url_scanning/index.php" "Mozilla/5.0 (Windows NT 10.0; Win64; x64) AppleWebKit/537.36 (KHTML, like Gecko) Chrome/80.0.3987.122 Safari/537.36"
127.0.0.1 - - [05/Mar/2020:10:29:24 +0900] "GET /leftmenu.php HTTP/1.1" 200 3608 "http://localhost/vuln_url_scanning/index.php" "Mozilla/5.0 (Windows NT 10.0; Win64; x64) AppleWebKit/537.36 (KHTML, like Gecko) Chrome/80.0.3987.122 Safari/537.36"
127.0.0.1 - - [05/Mar/2020:10:29:55 +0900] "GET /http_header_enum/index.php HTTP/1.1" 200 719 "http://localhost/leftmenu.php" "Mozilla/5.0 (Windows NT 10.0; Win64; x64) AppleWebKit/537.36 (KHTML, like Gecko) Chrome/80.0.3987.122 Safari/537.36"
127.0.0.1 - - [05/Mar/2020:10:29:55 +0900] "GET /userinfo.php HTTP/1.1" 200 996 "http://localhost/http_header_enum/index.php" "Mozilla/5.0 (Windows NT 10.0; Win64; x64) AppleWebKit/537.36 (KHTML, like Gecko) Chrome/80.0.3987.122 Safari/537.36"
127.0.0.1 - - [05/Mar/2020:10:29:55 +0900] "GET /leftmenu.php HTTP/1.1" 200 3608 "http://localhost/http_header_enum/index.php" "Mozilla/5.0 (Windows NT 10.0; Win64; x64) AppleWebKit/537.36 (KHTML, like Gecko) Chrome/80.0.3987.122 Safari/537.36"
127.0.0.1 - - [05/Mar/2020:10:29:55 +0900] "GET /http_header_enum/http_header_enum_main.php HTTP/1.1" 200 166 "http://localhost/http_header_enum/index.php" "Mozilla/5.0 (Windows NT 10.0; Win64; x64) AppleWebKit/537.36 (KHTML, like Gecko) Chrome/80.0.3987.122 Safari/537.36"
127.0.0.1 - - [05/Mar/2020:10:29:57 +0900] "POST /http_header_enum/http_header_enum_process.php HTTP/1.1" 302 12 "http://localhost/http_header_enum/http_header_enum_main.php" "Mozilla/5.0 (Windows NT 10.0; Win64; x64) AppleWebKit/537.36 (KHTML, like Gecko) Chrome/80.0.3987.122 Safari/537.36"
127.0.0.1 - - [05/Mar/2020:10:29:57 +0900] "GET /http_header_enum/http_header_enum_result.php HTTP/1.1" 200 11729 "http://localhost/http_header_enum/http_header_enum_main.php" "Mozilla/5.0 (Windows NT 10.0; Win64; x64) AppleWebKit/537.36 (KHTML, like Gecko) Chrome/80.0.3987.122 Safari/537.36"
127.0.0.1 - - [05/Mar/2020:10:32:14 +0900] "GET /logout.php HTTP/1.1" 302 5 "http://localhost/userinfo.php" "Mozilla/5.0 (Windows NT 10.0; Win64; x64) AppleWebKit/537.36 (KHTML, like Gecko) Chrome/80.0.3987.122 Safari/537.36"
127.0.0.1 - - [05/Mar/2020:10:32:14 +0900] "GET /userinfo.php HTTP/1.1" 200 1200 "http://localhost/userinfo.php" "Mozilla/5.0 (Windows NT 10.0; Win64; x64) AppleWebKit/537.36 (KHTML, like Gecko) Chrome/80.0.3987.122 Safari/537.36"
127.0.0.1 - - [05/Mar/2020:10:32:15 +0900] "GET /join.php HTTP/1.1" 200 1111 "http://localhost/userinfo.php" "Mozilla/5.0 (Windows NT 10.0; Win64; x64) AppleWebKit/537.36 (KHTML, like Gecko) Chrome/80.0.3987.122 Safari/537.36"
127.0.0.1 - - [05/Mar/2020:10:35:51 +0900] "GET /link_analysis/index.php HTTP/1.1" 200 716 "http://localhost/leftmenu.php" "Mozilla/5.0 (Windows NT 10.0; Win64; x64) AppleWebKit/537.36 (KHTML, like Gecko) Chrome/80.0.3987.122 Safari/537.36"
127.0.0.1 - - [05/Mar/2020:10:35:51 +0900] "GET /userinfo.php HTTP/1.1" 200 1200 "http://localhost/link_analysis/index.php" "Mozilla/5.0 (Windows NT 10.0; Win64; x64) AppleWebKit/537.36 (KHTML, like Gecko) Chrome/80.0.3987.122 Safari/537.36"
127.0.0.1 - - [05/Mar/2020:10:35:51 +0900] "GET /link_analysis/link_analysis_main.php HTTP/1.1" 200 78 "http://localhost/link_analysis/index.php" "Mozilla/5.0 (Windows NT 10.0; Win64; x64) AppleWebKit/537.36 (KHTML, like Gecko) Chrome/80.0.3987.122 Safari/537.36"
127.0.0.1 - - [05/Mar/2020:10:35:51 +0900] "GET /leftmenu.php HTTP/1.1" 200 3608 "http://localhost/link_analysis/index.php" "Mozilla/5.0 (Windows NT 10.0; Win64; x64) AppleWebKit/537.36 (KHTML, like Gecko) Chrome/80.0.3987.122 Safari/537.36"
127.0.0.1 - - [05/Mar/2020:10:35:52 +0900] "GET /userinfo.php HTTP/1.1" 200 1200 "http://localhost/userinfo.php" "Mozilla/5.0 (Windows NT 10.0; Win64; x64) AppleWebKit/537.36 (KHTML, like Gecko) Chrome/80.0.3987.122 Safari/537.36"
127.0.0.1 - - [05/Mar/2020:10:35:55 +0900] "POST /login_process.php HTTP/1.1" 302 109 "http://localhost/userinfo.php" "Mozilla/5.0 (Windows NT 10.0; Win64; x64) AppleWebKit/537.36 (KHTML, like Gecko) Chrome/80.0.3987.122 Safari/537.36"
127.0.0.1 - - [05/Mar/2020:10:35:55 +0900] "GET /userinfo.php HTTP/1.1" 200 996 "http://localhost/userinfo.php" "Mozilla/5.0 (Windows NT 10.0; Win64; x64) AppleWebKit/537.36 (KHTML, like Gecko) Chrome/80.0.3987.122 Safari/537.36"
127.0.0.1 - - [05/Mar/2020:10:35:57 +0900] "GET /link_analysis/index.php HTTP/1.1" 200 716 "http://localhost/leftmenu.php" "Mozilla/5.0 (Windows NT 10.0; Win64; x64) AppleWebKit/537.36 (KHTML, like Gecko) Chrome/80.0.3987.122 Safari/537.36"
127.0.0.1 - - [05/Mar/2020:10:35:57 +0900] "GET /userinfo.php HTTP/1.1" 200 996 "http://localhost/link_analysis/index.php" "Mozilla/5.0 (Windows NT 10.0; Win64; x64) AppleWebKit/537.36 (KHTML, like Gecko) Chrome/80.0.3987.122 Safari/537.36"
127.0.0.1 - - [05/Mar/2020:10:35:57 +0900] "GET /link_analysis/link_analysis_main.php HTTP/1.1" 200 493 "http://localhost/link_analysis/index.php" "Mozilla/5.0 (Windows NT 10.0; Win64; x64) AppleWebKit/537.36 (KHTML, like Gecko) Chrome/80.0.3987.122 Safari/537.36"
127.0.0.1 - - [05/Mar/2020:10:35:57 +0900] "GET /leftmenu.php HTTP/1.1" 200 3608 "http://localhost/link_analysis/index.php" "Mozilla/5.0 (Windows NT 10.0; Win64; x64) AppleWebKit/537.36 (KHTML, like Gecko) Chrome/80.0.3987.122 Safari/537.36"
127.0.0.1 - - [05/Mar/2020:10:36:07 +0900] "POST /link_analysis/link_analysis_process.php HTTP/1.1" 302 5 "http://localhost/link_analysis/link_analysis_main.php" "Mozilla/5.0 (Windows NT 10.0; Win64; x64) AppleWebKit/537.36 (KHTML, like Gecko) Chrome/80.0.3987.122 Safari/537.36"
127.0.0.1 - - [05/Mar/2020:10:36:07 +0900] "GET /link_analysis/link_analysis_result.php HTTP/1.1" 200 190393 "http://localhost/link_analysis/link_analysis_main.php" "Mozilla/5.0 (Windows NT 10.0; Win64; x64) AppleWebKit/537.36 (KHTML, like Gecko) Chrome/80.0.3987.122 Safari/537.36"
127.0.0.1 - - [05/Mar/2020:10:36:11 +0900] "GET /link_analysis/link_analysis_result.php HTTP/1.1" 200 287 "http://localhost/link_analysis/link_analysis_result.php" "Mozilla/5.0 (Windows NT 10.0; Win64; x64) AppleWebKit/537.36 (KHTML, like Gecko) Chrome/80.0.3987.122 Safari/537.36"
127.0.0.1 - - [05/Mar/2020:10:36:12 +0900] "GET /link_analysis/link_analysis_result.php HTTP/1.1" 200 287 "http://localhost/link_analysis/link_analysis_result.php" "Mozilla/5.0 (Windows NT 10.0; Win64; x64) AppleWebKit/537.36 (KHTML, like Gecko) Chrome/80.0.3987.122 Safari/537.36"
127.0.0.1 - - [05/Mar/2020:10:36:13 +0900] "GET /link_analysis/index.php HTTP/1.1" 200 716 "http://localhost/leftmenu.php" "Mozilla/5.0 (Windows NT 10.0; Win64; x64) AppleWebKit/537.36 (KHTML, like Gecko) Chrome/80.0.3987.122 Safari/537.36"
127.0.0.1 - - [05/Mar/2020:10:36:13 +0900] "GET /userinfo.php HTTP/1.1" 200 996 "http://localhost/link_analysis/index.php" "Mozilla/5.0 (Windows NT 10.0; Win64; x64) AppleWebKit/537.36 (KHTML, like Gecko) Chrome/80.0.3987.122 Safari/537.36"
127.0.0.1 - - [05/Mar/2020:10:36:13 +0900] "GET /link_analysis/link_analysis_main.php HTTP/1.1" 200 493 "http://localhost/link_analysis/index.php" "Mozilla/5.0 (Windows NT 10.0; Win64; x64) AppleWebKit/537.36 (KHTML, like Gecko) Chrome/80.0.3987.122 Safari/537.36"
127.0.0.1 - - [05/Mar/2020:10:36:13 +0900] "GET /leftmenu.php HTTP/1.1" 200 3608 "http://localhost/link_analysis/index.php" "Mozilla/5.0 (Windows NT 10.0; Win64; x64) AppleWebKit/537.36 (KHTML, like Gecko) Chrome/80.0.3987.122 Safari/537.36"
127.0.0.1 - - [05/Mar/2020:10:36:20 +0900] "POST /link_analysis/link_analysis_process.php HTTP/1.1" 302 5 "http://localhost/link_analysis/link_analysis_main.php" "Mozilla/5.0 (Windows NT 10.0; Win64; x64) AppleWebKit/537.36 (KHTML, like Gecko) Chrome/80.0.3987.122 Safari/537.36"
127.0.0.1 - - [05/Mar/2020:10:36:20 +0900] "GET /link_analysis/link_analysis_result.php HTTP/1.1" 200 287 "http://localhost/link_analysis/link_analysis_main.php" "Mozilla/5.0 (Windows NT 10.0; Win64; x64) AppleWebKit/537.36 (KHTML, like Gecko) Chrome/80.0.3987.122 Safari/537.36"
127.0.0.1 - - [05/Mar/2020:10:36:24 +0900] "GET /link_analysis/index.php HTTP/1.1" 200 716 "http://localhost/leftmenu.php" "Mozilla/5.0 (Windows NT 10.0; Win64; x64) AppleWebKit/537.36 (KHTML, like Gecko) Chrome/80.0.3987.122 Safari/537.36"
127.0.0.1 - - [05/Mar/2020:10:36:24 +0900] "GET /userinfo.php HTTP/1.1" 200 996 "http://localhost/link_analysis/index.php" "Mozilla/5.0 (Windows NT 10.0; Win64; x64) AppleWebKit/537.36 (KHTML, like Gecko) Chrome/80.0.3987.122 Safari/537.36"
127.0.0.1 - - [05/Mar/2020:10:36:24 +0900] "GET /link_analysis/link_analysis_main.php HTTP/1.1" 200 493 "http://localhost/link_analysis/index.php" "Mozilla/5.0 (Windows NT 10.0; Win64; x64) AppleWebKit/537.36 (KHTML, like Gecko) Chrome/80.0.3987.122 Safari/537.36"
127.0.0.1 - - [05/Mar/2020:10:36:24 +0900] "GET /leftmenu.php HTTP/1.1" 200 3608 "http://localhost/link_analysis/index.php" "Mozilla/5.0 (Windows NT 10.0; Win64; x64) AppleWebKit/537.36 (KHTML, like Gecko) Chrome/80.0.3987.122 Safari/537.36"
127.0.0.1 - - [05/Mar/2020:10:36:33 +0900] "POST /link_analysis/link_analysis_process.php HTTP/1.1" 302 5 "http://localhost/link_analysis/link_analysis_main.php" "Mozilla/5.0 (Windows NT 10.0; Win64; x64) AppleWebKit/537.36 (KHTML, like Gecko) Chrome/80.0.3987.122 Safari/537.36"
127.0.0.1 - - [05/Mar/2020:10:36:33 +0900] "GET /link_analysis/link_analysis_result.php HTTP/1.1" 200 287 "http://localhost/link_analysis/link_analysis_main.php" "Mozilla/5.0 (Windows NT 10.0; Win64; x64) AppleWebKit/537.36 (KHTML, like Gecko) Chrome/80.0.3987.122 Safari/537.36"
127.0.0.1 - - [05/Mar/2020:10:36:40 +0900] "GET /link_analysis/link_analysis_result.php HTTP/1.1" 200 287 "http://localhost/link_analysis/link_analysis_result.php" "Mozilla/5.0 (Windows NT 10.0; Win64; x64) AppleWebKit/537.36 (KHTML, like Gecko) Chrome/80.0.3987.122 Safari/537.36"
127.0.0.1 - - [05/Mar/2020:10:36:40 +0900] "GET /link_analysis/link_analysis_result.php HTTP/1.1" 200 287 "http://localhost/link_analysis/link_analysis_result.php" "Mozilla/5.0 (Windows NT 10.0; Win64; x64) AppleWebKit/537.36 (KHTML, like Gecko) Chrome/80.0.3987.122 Safari/537.36"
127.0.0.1 - - [05/Mar/2020:10:36:41 +0900] "GET /link_analysis/link_analysis_result.php HTTP/1.1" 200 287 "http://localhost/link_analysis/link_analysis_result.php" "Mozilla/5.0 (Windows NT 10.0; Win64; x64) AppleWebKit/537.36 (KHTML, like Gecko) Chrome/80.0.3987.122 Safari/537.36"
127.0.0.1 - - [05/Mar/2020:10:37:07 +0900] "GET /link_analysis/link_analysis_result.php HTTP/1.1" 200 287 "http://localhost/link_analysis/link_analysis_result.php" "Mozilla/5.0 (Windows NT 10.0; Win64; x64) AppleWebKit/537.36 (KHTML, like Gecko) Chrome/80.0.3987.122 Safari/537.36"
127.0.0.1 - - [05/Mar/2020:10:37:08 +0900] "GET /link_analysis/link_analysis_result.php HTTP/1.1" 200 287 "http://localhost/link_analysis/link_analysis_result.php" "Mozilla/5.0 (Windows NT 10.0; Win64; x64) AppleWebKit/537.36 (KHTML, like Gecko) Chrome/80.0.3987.122 Safari/537.36"
127.0.0.1 - - [05/Mar/2020:10:37:09 +0900] "GET /link_analysis/link_analysis_result.php HTTP/1.1" 200 287 "http://localhost/leftmenu.php" "Mozilla/5.0 (Windows NT 10.0; Win64; x64) AppleWebKit/537.36 (KHTML, like Gecko) Chrome/80.0.3987.122 Safari/537.36"
127.0.0.1 - - [05/Mar/2020:10:37:09 +0900] "GET /http_header_enum/index.php HTTP/1.1" 200 719 "http://localhost/leftmenu.php" "Mozilla/5.0 (Windows NT 10.0; Win64; x64) AppleWebKit/537.36 (KHTML, like Gecko) Chrome/80.0.3987.122 Safari/537.36"
127.0.0.1 - - [05/Mar/2020:10:37:09 +0900] "GET /userinfo.php HTTP/1.1" 200 996 "http://localhost/http_header_enum/index.php" "Mozilla/5.0 (Windows NT 10.0; Win64; x64) AppleWebKit/537.36 (KHTML, like Gecko) Chrome/80.0.3987.122 Safari/537.36"
127.0.0.1 - - [05/Mar/2020:10:37:09 +0900] "GET /http_header_enum/http_header_enum_main.php HTTP/1.1" 200 166 "http://localhost/http_header_enum/index.php" "Mozilla/5.0 (Windows NT 10.0; Win64; x64) AppleWebKit/537.36 (KHTML, like Gecko) Chrome/80.0.3987.122 Safari/537.36"
127.0.0.1 - - [05/Mar/2020:10:37:09 +0900] "GET /leftmenu.php HTTP/1.1" 200 3608 "http://localhost/http_header_enum/index.php" "Mozilla/5.0 (Windows NT 10.0; Win64; x64) AppleWebKit/537.36 (KHTML, like Gecko) Chrome/80.0.3987.122 Safari/537.36"
127.0.0.1 - - [05/Mar/2020:10:37:11 +0900] "POST /http_header_enum/http_header_enum_process.php HTTP/1.1" 302 12 "http://localhost/http_header_enum/http_header_enum_main.php" "Mozilla/5.0 (Windows NT 10.0; Win64; x64) AppleWebKit/537.36 (KHTML, like Gecko) Chrome/80.0.3987.122 Safari/537.36"
127.0.0.1 - - [05/Mar/2020:10:37:11 +0900] "GET /http_header_enum/http_header_enum_result.php HTTP/1.1" 200 5815 "http://localhost/http_header_enum/http_header_enum_main.php" "Mozilla/5.0 (Windows NT 10.0; Win64; x64) AppleWebKit/537.36 (KHTML, like Gecko) Chrome/80.0.3987.122 Safari/537.36"
127.0.0.1 - - [05/Mar/2020:10:37:11 +0900] "GET /http_header_enum/http_header_enum_result.php HTTP/1.1" 200 5815 "http://localhost/http_header_enum/http_header_enum_result.php" "Mozilla/5.0 (Windows NT 10.0; Win64; x64) AppleWebKit/537.36 (KHTML, like Gecko) Chrome/80.0.3987.122 Safari/537.36"
127.0.0.1 - - [05/Mar/2020:10:37:13 +0900] "GET /http_header_enum/http_header_enum_result.php HTTP/1.1" 200 5815 "http://localhost/http_header_enum/http_header_enum_result.php" "Mozilla/5.0 (Windows NT 10.0; Win64; x64) AppleWebKit/537.36 (KHTML, like Gecko) Chrome/80.0.3987.122 Safari/537.36"
127.0.0.1 - - [05/Mar/2020:10:37:21 +0900] "GET /link_analysis/index.php HTTP/1.1" 200 716 "http://localhost/leftmenu.php" "Mozilla/5.0 (Windows NT 10.0; Win64; x64) AppleWebKit/537.36 (KHTML, like Gecko) Chrome/80.0.3987.122 Safari/537.36"
127.0.0.1 - - [05/Mar/2020:10:37:21 +0900] "GET /userinfo.php HTTP/1.1" 200 996 "http://localhost/link_analysis/index.php" "Mozilla/5.0 (Windows NT 10.0; Win64; x64) AppleWebKit/537.36 (KHTML, like Gecko) Chrome/80.0.3987.122 Safari/537.36"
127.0.0.1 - - [05/Mar/2020:10:37:21 +0900] "GET /link_analysis/link_analysis_main.php HTTP/1.1" 200 493 "http://localhost/link_analysis/index.php" "Mozilla/5.0 (Windows NT 10.0; Win64; x64) AppleWebKit/537.36 (KHTML, like Gecko) Chrome/80.0.3987.122 Safari/537.36"
127.0.0.1 - - [05/Mar/2020:10:37:21 +0900] "GET /leftmenu.php HTTP/1.1" 200 3608 "http://localhost/link_analysis/index.php" "Mozilla/5.0 (Windows NT 10.0; Win64; x64) AppleWebKit/537.36 (KHTML, like Gecko) Chrome/80.0.3987.122 Safari/537.36"
127.0.0.1 - - [05/Mar/2020:10:37:30 +0900] "POST /link_analysis/link_analysis_process.php HTTP/1.1" 302 5 "http://localhost/link_analysis/link_analysis_main.php" "Mozilla/5.0 (Windows NT 10.0; Win64; x64) AppleWebKit/537.36 (KHTML, like Gecko) Chrome/80.0.3987.122 Safari/537.36"
127.0.0.1 - - [05/Mar/2020:10:37:30 +0900] "GET /link_analysis/link_analysis_result.php HTTP/1.1" 200 287 "http://localhost/link_analysis/link_analysis_main.php" "Mozilla/5.0 (Windows NT 10.0; Win64; x64) AppleWebKit/537.36 (KHTML, like Gecko) Chrome/80.0.3987.122 Safari/537.36"
127.0.0.1 - - [05/Mar/2020:10:37:35 +0900] "GET /link_analysis/link_analysis_result.php HTTP/1.1" 200 1062 "http://localhost/link_analysis/link_analysis_result.php" "Mozilla/5.0 (Windows NT 10.0; Win64; x64) AppleWebKit/537.36 (KHTML, like Gecko) Chrome/80.0.3987.122 Safari/537.36"
127.0.0.1 - - [05/Mar/2020:10:37:36 +0900] "GET /link_analysis/index.php HTTP/1.1" 200 716 "http://localhost/leftmenu.php" "Mozilla/5.0 (Windows NT 10.0; Win64; x64) AppleWebKit/537.36 (KHTML, like Gecko) Chrome/80.0.3987.122 Safari/537.36"
127.0.0.1 - - [05/Mar/2020:10:37:36 +0900] "GET /userinfo.php HTTP/1.1" 200 996 "http://localhost/link_analysis/index.php" "Mozilla/5.0 (Windows NT 10.0; Win64; x64) AppleWebKit/537.36 (KHTML, like Gecko) Chrome/80.0.3987.122 Safari/537.36"
127.0.0.1 - - [05/Mar/2020:10:37:36 +0900] "GET /link_analysis/link_analysis_main.php HTTP/1.1" 200 493 "http://localhost/link_analysis/index.php" "Mozilla/5.0 (Windows NT 10.0; Win64; x64) AppleWebKit/537.36 (KHTML, like Gecko) Chrome/80.0.3987.122 Safari/537.36"
127.0.0.1 - - [05/Mar/2020:10:37:36 +0900] "GET /leftmenu.php HTTP/1.1" 200 3608 "http://localhost/link_analysis/index.php" "Mozilla/5.0 (Windows NT 10.0; Win64; x64) AppleWebKit/537.36 (KHTML, like Gecko) Chrome/80.0.3987.122 Safari/537.36"
127.0.0.1 - - [05/Mar/2020:10:37:44 +0900] "POST /link_analysis/link_analysis_process.php HTTP/1.1" 302 5 "http://localhost/link_analysis/link_analysis_main.php" "Mozilla/5.0 (Windows NT 10.0; Win64; x64) AppleWebKit/537.36 (KHTML, like Gecko) Chrome/80.0.3987.122 Safari/537.36"
127.0.0.1 - - [05/Mar/2020:10:37:44 +0900] "GET /link_analysis/link_analysis_result.php HTTP/1.1" 200 1062 "http://localhost/link_analysis/link_analysis_main.php" "Mozilla/5.0 (Windows NT 10.0; Win64; x64) AppleWebKit/537.36 (KHTML, like Gecko) Chrome/80.0.3987.122 Safari/537.36"
127.0.0.1 - - [05/Mar/2020:10:37:51 +0900] "GET /link_analysis/link_analysis_result.php HTTP/1.1" 200 287 "http://localhost/link_analysis/link_analysis_result.php" "Mozilla/5.0 (Windows NT 10.0; Win64; x64) AppleWebKit/537.36 (KHTML, like Gecko) Chrome/80.0.3987.122 Safari/537.36"
127.0.0.1 - - [05/Mar/2020:10:38:55 +0900] "GET /link_analysis/link_analysis_result.php HTTP/1.1" 200 160 "http://localhost/link_analysis/link_analysis_result.php" "Mozilla/5.0 (Windows NT 10.0; Win64; x64) AppleWebKit/537.36 (KHTML, like Gecko) Chrome/80.0.3987.122 Safari/537.36"
127.0.0.1 - - [05/Mar/2020:10:40:31 +0900] "GET / HTTP/1.1" 200 709 "-" "Mozilla/5.0 (Windows NT 10.0; Win64; x64) AppleWebKit/537.36 (KHTML, like Gecko) Chrome/76.0.3809.132 Safari/537.36"
127.0.0.1 - - [05/Mar/2020:10:40:31 +0900] "GET /userinfo.php HTTP/1.1" 200 1200 "-" "Mozilla/5.0 (Windows NT 10.0; Win64; x64) AppleWebKit/537.36 (KHTML, like Gecko) Chrome/76.0.3809.132 Safari/537.36"
127.0.0.1 - - [05/Mar/2020:10:40:31 +0900] "GET /leftmenu.php HTTP/1.1" 200 3608 "-" "Mozilla/5.0 (Windows NT 10.0; Win64; x64) AppleWebKit/537.36 (KHTML, like Gecko) Chrome/76.0.3809.132 Safari/537.36"
127.0.0.1 - - [05/Mar/2020:10:40:31 +0900] "GET /content.php HTTP/1.1" 200 5 "-" "Mozilla/5.0 (Windows NT 10.0; Win64; x64) AppleWebKit/537.36 (KHTML, like Gecko) Chrome/76.0.3809.132 Safari/537.36"
127.0.0.1 - - [05/Mar/2020:10:40:31 +0900] "GET /login_process.php HTTP/1.1" 302 1194 "-" "Mozilla/5.0 (Windows NT 10.0; Win64; x64) AppleWebKit/537.36 (KHTML, like Gecko) Chrome/76.0.3809.132 Safari/537.36"
127.0.0.1 - - [05/Mar/2020:10:40:31 +0900] "GET /userinfo.php HTTP/1.1" 200 1200 "-" "Mozilla/5.0 (Windows NT 10.0; Win64; x64) AppleWebKit/537.36 (KHTML, like Gecko) Chrome/76.0.3809.132 Safari/537.36"
127.0.0.1 - - [05/Mar/2020:10:40:32 +0900] "GET /join.php HTTP/1.1" 200 1111 "-" "Mozilla/5.0 (Windows NT 10.0; Win64; x64) AppleWebKit/537.36 (KHTML, like Gecko) Chrome/76.0.3809.132 Safari/537.36"
127.0.0.1 - - [05/Mar/2020:10:40:32 +0900] "GET /index.php HTTP/1.1" 200 709 "-" "Mozilla/5.0 (Windows NT 10.0; Win64; x64) AppleWebKit/537.36 (KHTML, like Gecko) Chrome/76.0.3809.132 Safari/537.36"
127.0.0.1 - - [05/Mar/2020:10:40:32 +0900] "GET /chatting/index.php HTTP/1.1" 200 711 "-" "Mozilla/5.0 (Windows NT 10.0; Win64; x64) AppleWebKit/537.36 (KHTML, like Gecko) Chrome/76.0.3809.132 Safari/537.36"